﻿  Target.cpp
d:\facultad\modelos y algoritmos para videojuegos 1\tp final\myapv1-tpfinal-floresfabbromatias\myapv1-tpfinal-floresfabbromatias\target.cpp(47): warning C4244: '=': conversión de 'double' a 'T'; posible pérdida de datos
          with
          [
              T=float
          ]
  MyApV1-TPFinal-FLORESFABBROMATIAS.vcxproj -> D:\Facultad\Modelos y Algoritmos para videojuegos 1\TP Final\MyApV1-TPFinal-FLORESFABBROMATIAS\Debug\MyApV1-TPFinal-FLORESFABBROMATIAS.exe
