^D:\FACULTAD\MODELOS Y ALGORITMOS PARA VIDEOJUEGOS 1\TP FINAL\MYAPV1-TPFINAL-FLORESFABBROMATIAS\MYAPV1-TPFINAL-FLORESFABBROMATIAS\TARGETMANAGER.CPP
/c /I"C:\LIBS\SFML-2.5.1\INCLUDE" /ZI /JMC /nologo /W3 /WX- /diagnostics:classic /sdl /Od /Oy- /D _MBCS /Gm- /EHsc /RTC1 /MDd /GS /fp:precise /permissive- /Zc:wchar_t /Zc:forScope /Zc:inline /Fo"DEBUG\\" /Fd"DEBUG\VC141.PDB" /Gd /TP /analyze- /FC D:\FACULTAD\MODELOS Y ALGORITMOS PARA VIDEOJUEGOS 1\TP FINAL\MYAPV1-TPFINAL-FLORESFABBROMATIAS\MYAPV1-TPFINAL-FLORESFABBROMATIAS\TARGETMANAGER.CPP
^D:\FACULTAD\MODELOS Y ALGORITMOS PARA VIDEOJUEGOS 1\TP FINAL\MYAPV1-TPFINAL-FLORESFABBROMATIAS\MYAPV1-TPFINAL-FLORESFABBROMATIAS\PLAYER.CPP
/c /I"C:\LIBS\SFML-2.5.1\INCLUDE" /ZI /JMC /nologo /W3 /WX- /diagnostics:classic /sdl /Od /Oy- /D _MBCS /Gm- /EHsc /RTC1 /MDd /GS /fp:precise /permissive- /Zc:wchar_t /Zc:forScope /Zc:inline /Fo"DEBUG\\" /Fd"DEBUG\VC141.PDB" /Gd /TP /analyze- /FC D:\FACULTAD\MODELOS Y ALGORITMOS PARA VIDEOJUEGOS 1\TP FINAL\MYAPV1-TPFINAL-FLORESFABBROMATIAS\MYAPV1-TPFINAL-FLORESFABBROMATIAS\PLAYER.CPP
^D:\FACULTAD\MODELOS Y ALGORITMOS PARA VIDEOJUEGOS 1\TP FINAL\MYAPV1-TPFINAL-FLORESFABBROMATIAS\MYAPV1-TPFINAL-FLORESFABBROMATIAS\SCORE.CPP
/c /I"C:\LIBS\SFML-2.5.1\INCLUDE" /ZI /JMC /nologo /W3 /WX- /diagnostics:classic /sdl /Od /Oy- /D _MBCS /Gm- /EHsc /RTC1 /MDd /GS /fp:precise /permissive- /Zc:wchar_t /Zc:forScope /Zc:inline /Fo"DEBUG\\" /Fd"DEBUG\VC141.PDB" /Gd /TP /analyze- /FC D:\FACULTAD\MODELOS Y ALGORITMOS PARA VIDEOJUEGOS 1\TP FINAL\MYAPV1-TPFINAL-FLORESFABBROMATIAS\MYAPV1-TPFINAL-FLORESFABBROMATIAS\SCORE.CPP
^D:\FACULTAD\MODELOS Y ALGORITMOS PARA VIDEOJUEGOS 1\TP FINAL\MYAPV1-TPFINAL-FLORESFABBROMATIAS\MYAPV1-TPFINAL-FLORESFABBROMATIAS\GAMEOVERSCREEN.CPP
/c /I"C:\LIBS\SFML-2.5.1\INCLUDE" /ZI /JMC /nologo /W3 /WX- /diagnostics:classic /sdl /Od /Oy- /D _MBCS /Gm- /EHsc /RTC1 /MDd /GS /fp:precise /permissive- /Zc:wchar_t /Zc:forScope /Zc:inline /Fo"DEBUG\\" /Fd"DEBUG\VC141.PDB" /Gd /TP /analyze- /FC D:\FACULTAD\MODELOS Y ALGORITMOS PARA VIDEOJUEGOS 1\TP FINAL\MYAPV1-TPFINAL-FLORESFABBROMATIAS\MYAPV1-TPFINAL-FLORESFABBROMATIAS\GAMEOVERSCREEN.CPP
^D:\FACULTAD\MODELOS Y ALGORITMOS PARA VIDEOJUEGOS 1\TP FINAL\MYAPV1-TPFINAL-FLORESFABBROMATIAS\MYAPV1-TPFINAL-FLORESFABBROMATIAS\GAME.CPP
/c /I"C:\LIBS\SFML-2.5.1\INCLUDE" /ZI /JMC /nologo /W3 /WX- /diagnostics:classic /sdl /Od /Oy- /D _MBCS /Gm- /EHsc /RTC1 /MDd /GS /fp:precise /permissive- /Zc:wchar_t /Zc:forScope /Zc:inline /Fo"DEBUG\\" /Fd"DEBUG\VC141.PDB" /Gd /TP /analyze- /FC D:\FACULTAD\MODELOS Y ALGORITMOS PARA VIDEOJUEGOS 1\TP FINAL\MYAPV1-TPFINAL-FLORESFABBROMATIAS\MYAPV1-TPFINAL-FLORESFABBROMATIAS\GAME.CPP
^D:\FACULTAD\MODELOS Y ALGORITMOS PARA VIDEOJUEGOS 1\TP FINAL\MYAPV1-TPFINAL-FLORESFABBROMATIAS\MYAPV1-TPFINAL-FLORESFABBROMATIAS\MAIN.CPP
/c /I"C:\LIBS\SFML-2.5.1\INCLUDE" /ZI /JMC /nologo /W3 /WX- /diagnostics:classic /sdl /Od /Oy- /D _MBCS /Gm- /EHsc /RTC1 /MDd /GS /fp:precise /permissive- /Zc:wchar_t /Zc:forScope /Zc:inline /Fo"DEBUG\\" /Fd"DEBUG\VC141.PDB" /Gd /TP /analyze- /FC D:\FACULTAD\MODELOS Y ALGORITMOS PARA VIDEOJUEGOS 1\TP FINAL\MYAPV1-TPFINAL-FLORESFABBROMATIAS\MYAPV1-TPFINAL-FLORESFABBROMATIAS\MAIN.CPP
^D:\FACULTAD\MODELOS Y ALGORITMOS PARA VIDEOJUEGOS 1\TP FINAL\MYAPV1-TPFINAL-FLORESFABBROMATIAS\MYAPV1-TPFINAL-FLORESFABBROMATIAS\TARGET.CPP
/c /I"C:\LIBS\SFML-2.5.1\INCLUDE" /ZI /JMC /nologo /W3 /WX- /diagnostics:classic /sdl /Od /Oy- /D _MBCS /Gm- /EHsc /RTC1 /MDd /GS /fp:precise /permissive- /Zc:wchar_t /Zc:forScope /Zc:inline /Fo"DEBUG\\" /Fd"DEBUG\VC141.PDB" /Gd /TP /analyze- /FC D:\FACULTAD\MODELOS Y ALGORITMOS PARA VIDEOJUEGOS 1\TP FINAL\MYAPV1-TPFINAL-FLORESFABBROMATIAS\MYAPV1-TPFINAL-FLORESFABBROMATIAS\TARGET.CPP
